{
  "cordova-plugin-whitelist": {
    "source": {
      "type": "registry",
      "id": "cordova-plugin-whitelist@1.3.3"
    },
    "is_top_level": true,
    "variables": {}
  },
  "cordova-plugin-statusbar": {
    "source": {
      "type": "registry",
      "id": "cordova-plugin-statusbar@2.4.2"
    },
    "is_top_level": true,
    "variables": {}
  },
  "cordova-plugin-device": {
    "source": {
      "type": "registry",
      "id": "cordova-plugin-device@2.0.2"
    },
    "is_top_level": true,
    "variables": {}
  },
  "cordova-plugin-splashscreen": {
    "source": {
      "type": "registry",
      "id": "cordova-plugin-splashscreen@5.0.2"
    },
    "is_top_level": true,
    "variables": {}
  },
  "cordova-plugin-ionic-keyboard": {
    "source": {
      "type": "registry",
      "id": "cordova-plugin-ionic-keyboard@^2.0.5"
    },
    "is_top_level": true,
    "variables": {}
  },
  "cordova-support-google-services": {
    "source": {
      "type": "registry",
      "id": "cordova-support-google-services@^1.1.0"
    },
    "is_top_level": true,
    "variables": {}
  },
  "phonegap-plugin-multidex": {
    "source": {
      "type": "registry",
      "id": "phonegap-plugin-multidex@~1.0.0"
    },
    "is_top_level": false,
    "variables": {}
  },
  "phonegap-plugin-push": {
    "source": {
      "type": "registry",
      "id": "phonegap-plugin-push@2.2.3"
    },
    "is_top_level": true,
    "variables": {
      "ANDROID_SUPPORT_V13_VERSION": "27.+",
      "FCM_VERSION": "11.6.2"
    }
  },
  "cordova-plugin-googlemaps": {
    "source": {
      "type": "registry",
      "id": "cordova-plugin-googlemaps"
    },
    "is_top_level": true,
    "variables": {
      "API_KEY_FOR_ANDROID": "AIzaSyCmSXnoBBGekErvqBvu5N7dbeqdH1pHp7c",
      "API_KEY_FOR_IOS": "AIzaSyCmSXnoBBGekErvqBvu5N7dbeqdH1pHp7c",
      "PLAY_SERVICES_VERSION": "15.0.1",
      "ANDROID_SUPPORT_V4_VERSION": "27.+",
      "LOCATION_WHEN_IN_USE_DESCRIPTION": "This app wants to get your location while this app runs only.",
      "LOCATION_ALWAYS_USAGE_DESCRIPTION": "This app wants to get your location always, even this app runs in background."
    }
  },
  "cordova-plugin-geolocation": {
    "source": {
      "type": "registry",
      "id": "cordova-plugin-geolocation@4.0.1"
    },
    "is_top_level": true,
    "variables": {
      "GEOLOCATION_USAGE_DESCRIPTION": "To locate you"
    }
  },
  "cordova-sms-plugin": {
    "source": {
      "type": "registry",
      "id": "cordova-sms-plugin@^0.1.13"
    },
    "is_top_level": true,
    "variables": {}
  },
  "cordova-plugin-datepicker": {
    "source": {
      "type": "registry",
      "id": "cordova-plugin-datepicker"
    },
    "is_top_level": true,
    "variables": {}
  },
  "cordova-plugin-network-information": {
    "source": {
      "type": "registry",
      "id": "cordova-plugin-network-information"
    },
    "is_top_level": true,
    "variables": {}
  },
  "cordova-plugin-app-version": {
    "source": {
      "type": "registry",
      "id": "cordova-plugin-app-version"
    },
    "is_top_level": true,
    "variables": {}
  },
  "cordova-plugin-x-socialsharing": {
    "source": {
      "type": "registry",
      "id": "cordova-plugin-x-socialsharing"
    },
    "is_top_level": true,
    "variables": {}
  },
  "es6-promise-plugin": {
    "source": {
      "type": "registry",
      "id": "es6-promise-plugin@^4.1.0"
    },
    "is_top_level": false,
    "variables": {}
  },
  "cordova-plugin-tts": {
    "source": {
      "type": "registry",
      "id": "cordova-plugin-tts"
    },
    "is_top_level": true,
    "variables": {}
  },
  "cordova-plugin-ionic-webview": {
    "source": {
      "type": "registry",
      "id": "cordova-plugin-ionic-webview@2.1.4"
    },
    "is_top_level": true,
    "variables": {}
  },
  "cordova-plugin-file": {
    "source": {
      "type": "registry",
      "id": "cordova-plugin-file@^6.0.1"
    },
    "is_top_level": false,
    "variables": {}
  },
  "cordova-plugin-file-transfer": {
    "source": {
      "type": "registry",
      "id": "cordova-plugin-file-transfer@^1.7.1"
    },
    "is_top_level": false,
    "variables": {}
  },
  "cordova-plugin-ionic": {
    "source": {
      "type": "registry",
      "id": "cordova-plugin-ionic@5.2.7"
    },
    "is_top_level": true,
    "variables": {
      "APP_ID": "e9b5f63d",
      "CHANNEL_NAME": "Master",
      "UPDATE_METHOD": "background",
      "UPDATE_API": "https://api.ionicjs.com",
      "MAX_STORE": "2",
      "MIN_BACKGROUND_DURATION": "30"
    }
  },
  "cordova-plugin-dreamover-uid": {
    "source": {
      "type": "registry",
      "id": "cordova-plugin-uid"
    },
    "is_top_level": true,
    "variables": {}
  },
  "cordova.plugins.diagnostic": {
    "source": {
      "type": "registry",
      "id": "cordova.plugins.diagnostic@4.0.10"
    },
    "is_top_level": true,
    "variables": {}
  },
  "com.googlemaps.ios": {
    "source": {
      "type": "registry",
      "id": "https://github.com/mapsplugin/cordova-plugin-googlemaps-sdk.git#2.7.0"
    },
    "is_top_level": false,
    "variables": {}
  },
  "mx.ferreyra.callnumber": {
    "source": {
      "type": "registry",
      "id": "call-number"
    },
    "is_top_level": true,
    "variables": {}
  }
}